module github.com/jahkeup/updater53

go 1.13

require (
	github.com/aws/aws-sdk-go v1.54.1
	github.com/cenkalti/backoff v2.2.1+incompatible
	github.com/miekg/dns v1.1.61
	github.com/pkg/errors v0.9.1
	github.com/stretchr/testify v1.8.1
	gopkg.in/yaml.v2 v2.4.0 // indirect
)
